%YAML 1.1
%TAG !u! tag:unity3d.com,2011:
--- !u!1045 &1
EditorBuildSettings:
  m_ObjectHideFlags: 0
  serializedVersion: 2
  m_Scenes:
  - enabled: 1
    path: Assets/Scene/Menu.unity
    guid: 1ca858bcc7d2c2646aa217a97eebe910
  - enabled: 1
    path: Assets/Scene/Prototype.unity
    guid: f02fbe9dee082694e88dfdc5b1ecbeb7
  - enabled: 1
    path: Assets/Scene/Loading.unity
    guid: 44974365a204ffe43811423c5fc4ea3c
  m_configObjects: {}
